;n;hit;total;percent
0;0;714;800;0.8925
1;1;723;800;0.90375
2;2;706;800;0.8825
3;3;707;800;0.88375
4;4;681;800;0.85125
5;5;691;800;0.86375
6;6;686;800;0.8575
7;7;677;800;0.84625
8;8;700;800;0.875
9;9;711;800;0.88875
10;10;705;800;0.88125
11;11;693;800;0.86625
12;12;687;800;0.85875
13;13;701;800;0.87625
14;14;730;800;0.9125
15;15;694;800;0.8675
16;16;709;800;0.88625
17;17;709;800;0.88625
18;18;721;800;0.90125
19;19;697;800;0.87125
20;20;709;800;0.88625
21;21;696;800;0.87
22;22;696;800;0.87
23;23;704;800;0.88
24;24;707;800;0.88375
25;25;701;800;0.87625
26;26;709;800;0.88625
27;27;710;800;0.8875
28;28;691;800;0.86375
29;29;698;800;0.8725
